Final Project
…
Time of Possesion Differential

teamGameStats2013

## # A tibble: 1,696 x 79
##    `Team Code` `Game Code` `Rush Att` `Rush Yard` `Rush TD` `Pass Att`
##          <dbl> <chr>            <dbl>       <dbl>     <dbl>      <dbl>
##  1           5 0005012820~         35         134         0         25
##  2           5 0317000520~         25          69         1         32
##  3           5 0005041820~         30         107         0         49
##  4           5 0671000520~         27         134         1         43
##  5           5 0005007120~         25          97         1         37
##  6           5 0519000520~         39          56         0         26
##  7           5 0005050320~         36         110         2         56
##  8           5 0005041420~         39         147         3         32
##  9           5 0047000520~         44         226         2         35
## 10           5 0331000520~         47         173         0         21
## # ... with 1,686 more rows, and 73 more variables: `Pass Comp` <dbl>, `Pass
## #   Yard` <dbl>, `Pass TD` <dbl>, `Pass Int` <dbl>, `Pass Conv` <dbl>, `Kickoff
## #   Ret` <dbl>, `Kickoff Ret Yard` <dbl>, `Kickoff Ret TD` <dbl>, `Punt
## #   Ret` <dbl>, `Punt Ret Yard` <dbl>, `Punt Ret TD` <dbl>, `Fum Ret` <dbl>,
## #   `Fum Ret Yard` <dbl>, `Fum Ret TD` <dbl>, `Int Ret` <dbl>, `Int Ret
## #   Yard` <dbl>, `Int Ret TD` <dbl>, `Misc Ret` <dbl>, `Misc Ret Yard` <dbl>,
## #   `Misc Ret TD` <dbl>, `Field Goal Att` <dbl>, `Field Goal Made` <dbl>, `Off
## #   XP Kick Att` <dbl>, `Off XP Kick Made` <dbl>, `Off 2XP Att` <dbl>, `Off 2XP
## #   Made` <dbl>, `Def 2XP Att` <dbl>, `Def 2XP Made` <dbl>, Safety <dbl>,
…
